Suite/Test/Step Name,Browser,Description,Tag,Start time,End time,Duration,Status
TS02 - Checkout,,,,2023-08-02 17:06:31,2023-08-02 17:08:24,1m - 52.983s,PASSED
,,,,,,,
Test Cases/Checkout/TC01 - Add to Chart,,,,2023-08-02 17:06:32,2023-08-02 17:07:29,57.138s,PASSED
"startApplication(""C:\Users\monic\Downloads\Android-MyDemoAppRN.1.2.0.build-231 (1).apk"", true)",,,,2023-08-02 17:06:33,2023-08-02 17:07:20,46.522s,PASSED
"tap(findTestObject(""Object Repository/Checkout/android.view.ViewGroup""), 0)",,,,2023-08-02 17:07:20,2023-08-02 17:07:22,2.842s,PASSED
"tap(findTestObject(""Object Repository/Checkout/android.view.ViewGroup (1)""), 0)",,,,2023-08-02 17:07:22,2023-08-02 17:07:24,1.523s,PASSED
"tap(findTestObject(""Object Repository/Checkout/android.view.ViewGroup (2)""), 0)",,,,2023-08-02 17:07:24,2023-08-02 17:07:25,1.293s,PASSED
closeApplication(),,,,2023-08-02 17:07:25,2023-08-02 17:07:29,3.666s,PASSED
,,,,,,,
Test Cases/Checkout/TC02 - Remove item in Chart,,,,2023-08-02 17:07:29,2023-08-02 17:08:24,54.815s,PASSED
"startApplication(""C:\Users\monic\Downloads\Android-MyDemoAppRN.1.2.0.build-231 (1).apk"", true)",,,,2023-08-02 17:07:30,2023-08-02 17:08:12,42.198s,PASSED
"tap(findTestObject(""Object Repository/Remove item in Chart/android.view.ViewGroup""), 0)",,,,2023-08-02 17:08:12,2023-08-02 17:08:15,3.155s,PASSED
"tap(findTestObject(""Object Repository/Remove item in Chart/android.view.ViewGroup (1)""), 0)",,,,2023-08-02 17:08:15,2023-08-02 17:08:17,1.804s,PASSED
"tap(findTestObject(""Object Repository/Remove item in Chart/android.view.ViewGroup (2)""), 0)",,,,2023-08-02 17:08:17,2023-08-02 17:08:19,1.420s,PASSED
"tap(findTestObject(""Object Repository/Remove item in Chart/android.view.ViewGroup (3)""), 0)",,,,2023-08-02 17:08:19,2023-08-02 17:08:20,1.851s,PASSED
closeApplication(),,,,2023-08-02 17:08:20,2023-08-02 17:08:24,3.316s,PASSED
